{
	"api_type": "InformativaFastData",
	"audit_level": "INFO",
	"businesstype": "CONSUMER",
	"functionality": "Inoltra i dati necessari alla creazionedi un ordine non commerciale",
	"header_ver": "1",
	"idMs": "3",
	"layer_counterpart": "MICROSERVIZIO",
	"mapCategory": "ProfiloCreditizio",
	"map_rule": "3",
	"process_counterpart": "ProfiloCreditizio",
	"service_name": "3_ProfiloCreditizio_GET_2.2",
	"system_counterpart": "SDP",
	"targeturl": "https://id3-profilocreditizio.sdp.coll.gcloud.telecomitalia.local"       
}